// Jest Snapshot v1, https://goo.gl/fbAQLP

exports[`should find errors in "component.js" 1`] = `
Array [
  Object {
    "errorCount": 1,
    "filePath": "test/component.js",
    "messages": Array [
      Object {
        "column": 22,
        "context": undefined,
        "line": 8,
        "message": "Element <p> is not permitted as content in <i>",
        "offset": 131,
        "ruleId": "element-permitted-content",
        "severity": 2,
        "size": 1,
      },
    ],
    "source": "/* globals Vue:false */

Vue.component(\\"foo\\", {
	template: \`<p>Lorem ipsum</p>\`,
});

Vue.component(\\"bar\\", {
	template: \`<i>Lorem <p>ipsum</p></i>\`,
});
",
    "warningCount": 0,
  },
]
`;

exports[`should find errors in "component.vue" 1`] = `
Array [
  Object {
    "errorCount": 3,
    "filePath": "test/component.vue",
    "messages": Array [
      Object {
        "column": 18,
        "context": undefined,
        "line": 4,
        "message": "Mismatched close-tag, expected '</p>' but found '</i>'.",
        "offset": 76,
        "ruleId": "close-order",
        "severity": 2,
        "size": 2,
      },
      Object {
        "column": 19,
        "context": undefined,
        "line": 25,
        "message": "Attribute \\":class\\" duplicated",
        "offset": 638,
        "ruleId": "no-dup-attr",
        "severity": 2,
        "size": 6,
      },
      Object {
        "column": 4,
        "context": undefined,
        "line": 28,
        "message": "<h1> cannot be empty, must have text content",
        "offset": 732,
        "ruleId": "empty-heading",
        "severity": 2,
        "size": 2,
      },
    ],
    "source": "<template>
	<div>
		<!-- should find close-order error -->
		<p>Lorem ipsum</i>

		<!-- should handle dynamic attributes -->
		<img src=\\"image.png\\" v-bind:alt=\\"dynamicAlt\\">
		<img src=\\"image.png\\" :alt=\\"dynamicAlt\\">

		<!-- should handle @event -->
		<a @click=\\"onClick\\">click me!</a>

		<!-- should not choke on boolean attributes -->
		<input type=\\"text\\" required>

		<!-- should not choke on misc vue constructs -->
		<ul>
			<template v-for=\\"item in items\\">
				<li>{{ item }}</li>
			</template>
		</ul>

		<!-- should detect duplicated :class but not duplicate class + :class -->
		<p class=\\"foo\\" :class=\\"bar\\"></p>
		<p :class=\\"foo\\" :class=\\"bar\\"></p>

		<!-- should detect bindings and friends as having textual content -->
		<h1></h1>
		<h2 v-html=\\"foo\\"></h2>
		<h3>{{ foo }}</h3>
		<h4><slot></slot></h4>
	</div>
</template>

<style>
 /* ... */
</style>

<script>
/* ... */
</script>
",
    "warningCount": 0,
  },
]
`;

exports[`should find errors in "slot-metadata.vue" 1`] = `
Array [
  Object {
    "errorCount": 1,
    "filePath": "test/slot-metadata.vue",
    "messages": Array [
      Object {
        "column": 6,
        "context": undefined,
        "line": 12,
        "message": "Element <div> is not permitted as content in slot \\"bar\\" (<slot-metadata>)",
        "offset": 253,
        "ruleId": "element-permitted-content",
        "severity": 2,
        "size": 3,
      },
    ],
    "source": "<template>
	<div>
		<!-- this component has slot metadata -->
		<slot-metadata>
			<!-- this slot should not have any errors -->
			<div v-slot:foo>
				<div>lorem ipsum</div>
			</div>

			<!-- this slot should have errors -->
			<div v-slot:bar>
				<div>lorem ipsum</div>
			</div>
		</slot-metadata>
	</div>
</template>
",
    "warningCount": 0,
  },
]
`;

exports[`should find no errors in "lang.vue" 1`] = `Array []`;
